,FedEx Confidential Information,,,,,,,,,,,,,,,,,,,,,,,
,IP Export,,,,,,,,,,,,,,,,,,,,,,,
,Japan,,,,,,,,,,,,,,,,,,,,,,,
,,,,,,,,,,,,,,,,,,,,,,,,
,Japan Sample Export Rates,,,,,,,,,,,,,,,,,,,,,,,
,For International Priority Shipments,,,,,,,,,,,,,,,,,,,,,,,"Effective September 11, 2023 to December 24, 2023"
,Rates exclude special fees and fuel surcharge(Per GRI23 list rate).,,,,,,,,,,,,,,,,,,,,,,,
,Please refer to Zone Index Special Pricing Program for detailed zone classification,,,,,,,,,,,,,,,,,,,,,,,
,Rates in JYE,,A,D,E,F,G,H,I,J,K,M,N,O,Q,R,S,T,U,V,W,X,Y,Z
,FedEx Envelope,0.5 kg,1850,2223,1374,1469,1927,1971,2238,1477,1147,1655,1667,1278,1171,1246,1418,1451,2243,1092,1205,1373,1341,1443
,FedEx Pak,0.5 kg,1894,3353,1946,1998,1967,2057,2352,1526,1170,1794,1673,1470,1200,1278,1456,1656,2246,1116,1230,1402,1341,1475
,,1,2359,4050,2318,2378,2524,2630,2975,1933,1459,2295,2022,1778,1452,1546,1760,1978,2714,1390,1532,1748,1624,1836
,,1.5,2702,4715,2634,2702,3122,3280,3751,2437,1671,2860,2256,2070,1620,1725,1965,2200,3160,1591,1755,2002,1812,2103
,,2,3024,5400,2953,3032,3763,3966,4434,2885,1870,3456,2501,2368,1796,1912,2178,2410,3620,1780,1964,2239,2008,2355
,,2.5,3371,6118,3274,3362,4380,4623,5136,3323,2082,4032,2766,2684,1986,2115,2407,2642,4100,1985,2190,2496,2221,2624
,International Priority (IP),0.5 kg,1691,4691,2788,2677,3105,3184,2826,2473,1420,2827,2115,1672,1503,1619,1842,2363,2702,1280,1436,1439,1613,1626
,,1,2261,5206,2787,2686,3615,3188,3407,2732,1502,2828,2117,1776,1658,1724,1943,2363,2902,1477,1579,1799,1613,1893
,,1.5,2549,6147,3198,3081,4494,3804,4230,3385,1694,3375,2380,2097,1864,1939,2184,2737,3426,1666,1781,2029,1814,2135
,,2,2838,7087,3609,3475,5373,4421,5054,4037,1885,3922,2644,2418,2071,2153,2426,3110,3950,1854,1982,2259,2015,2376
,,2.5,3126,8027,4021,3869,6252,5038,5877,4689,2077,4470,2907,2739,2277,2368,2668,3484,4475,2043,2184,2489,2216,2618
,,3,3446,8128,4021,3872,6858,5472,5881,4857,2075,5472,2906,2816,2278,2370,2669,3800,4476,2046,2193,2490,2216,2615
,,3.5,3703,8971,4626,4460,7675,6081,6607,5464,2230,6081,3219,3109,2524,2625,2957,4168,4941,2198,2356,2676,2455,2810
,,4,3960,9815,5232,5048,8492,6690,7333,6071,2384,6690,3532,3401,2770,2881,3245,4536,5406,2351,2520,2862,2694,3005
,,4.5,4217,10659,5837,5636,9310,7298,8059,6678,2539,7298,3846,3693,3016,3137,3532,4904,5870,2503,2683,3047,2933,3200
,,5,4474,11503,6442,6224,10127,7907,8786,7285,2694,7907,4159,3986,3261,3392,3820,5272,6335,2656,2846,3233,3172,3395
,,5.5,5564,12243,6445,6224,12145,8180,8789,7899,2699,8180,4511,4602,3389,3392,4295,6038,6879,2655,2872,3233,3173,3399
,,6,5758,12791,6603,6377,12391,8452,8982,8066,2793,8452,4622,4808,3473,3476,4400,6179,7187,2747,2972,3346,3251,3517
,,6.5,5952,13338,6762,6530,12636,8725,9175,8232,2887,8725,4733,5013,3556,3559,4506,6319,7495,2840,3072,3458,3329,3636
,,7,6145,13886,6921,6682,12882,8997,9369,8399,2981,8997,4844,5219,3640,3643,4612,6459,7803,2932,3172,3571,3407,3754
,,7.5,6339,14434,7080,6835,13127,9270,9562,8565,3075,9270,4955,5425,3723,3726,4717,6599,8110,3024,3272,3683,3485,3872
,,8,6532,14982,7239,6988,13373,9542,9756,8732,3169,9542,5066,5631,3806,3810,4823,6740,8418,3117,3372,3796,3563,3990
,,8.5,6726,15529,7398,7141,13618,9815,9949,8898,3263,9815,5177,5837,3890,3893,4929,6880,8726,3209,3472,3908,3641,4109
,,9,6920,16077,7556,7294,13864,10087,10142,9065,3357,10087,5288,6043,3973,3977,5034,7020,9034,3301,3572,4021,3719,4227
,,9.5,7113,16625,7715,7446,14109,10360,10336,9231,3451,10360,5399,6249,4057,4060,5140,7161,9342,3394,3672,4133,3798,4345
,,10,7307,17172,7874,7599,14355,10632,10529,9398,3545,10632,5510,6455,4140,4144,5246,7301,9649,3486,3772,4246,3876,4463
,,10.5,7304,17539,7966,8404,26192,10629,12100,24843,4377,10629,6200,7472,4817,6921,6778,7380,11377,4397,4556,5301,6562,5827
,,11,7447,17878,8112,8558,26640,10783,12312,25283,4463,10783,6290,7617,4887,7022,6876,7487,11597,4483,4645,5405,6658,5942
,,11.5,7591,18217,8258,8712,27087,10938,12525,25723,4549,10938,6380,7761,4957,7123,6975,7593,11817,4570,4735,5509,6753,6056
,,12,7734,18557,8405,8866,27534,11093,12737,26162,4635,11093,6470,7906,5027,7224,7074,7700,12038,4656,4824,5613,6849,6171
,,12.5,7878,18896,8551,9019,27982,11247,12950,26602,4721,11247,6561,8051,5097,7324,7172,7807,12258,4742,4914,5717,6945,6285
,,13,8021,19235,8697,9173,28429,11402,13163,27041,4807,11402,6651,8195,5168,7425,7271,7913,12478,4829,5003,5821,7040,6399
,,13.5,8164,19575,8843,9327,28877,11557,13375,27481,4893,11557,6741,8340,5238,7526,7370,8020,12698,4915,5093,5925,7136,6514
,,14,8308,19914,8990,9481,29324,11711,13588,27920,4979,11711,6831,8484,5308,7627,7468,8127,12918,5001,5182,6029,7231,6628
,,14.5,8451,20253,9136,9635,29772,11866,13801,28360,5065,11866,6922,8629,5378,7727,7567,8233,13138,5088,5271,6133,7327,6743
,,15,8595,20592,9282,9788,30219,12021,14013,28799,5151,12021,7012,8773,5448,7828,7666,8340,13358,5174,5361,6237,7422,6857
,,15.5,8738,20932,9429,9942,30666,12175,14226,29239,5236,12175,7102,8918,5518,7929,7764,8447,13578,5260,5450,6342,7518,6971
,,16,8881,21271,9575,10096,31114,12330,14438,29679,5322,12330,7193,9063,5588,8030,7863,8553,13798,5347,5540,6446,7613,7086
,,16.5,9025,21610,9721,10250,31561,12485,14651,30118,5408,12485,7283,9207,5658,8130,7962,8660,14018,5433,5629,6550,7709,7200
,,17,9168,21950,9867,10404,32009,12639,14864,30558,5494,12639,7373,9352,5729,8231,8060,8767,14239,5519,5719,6654,7804,7315
,,17.5,9312,22289,10014,10558,32456,12794,15076,30997,5580,12794,7463,9496,5799,8332,8159,8873,14459,5605,5808,6758,7900,7429
,,18,9455,22628,10160,10711,32904,12949,15289,31437,5666,12949,7554,9641,5869,8433,8258,8980,14679,5692,5898,6862,7995,7543
,,18.5,9598,22968,10306,10865,33351,13103,15502,31876,5752,13103,7644,9785,5939,8533,8356,9086,14899,5778,5987,6966,8091,7658
,,19,9742,23307,10452,11019,33798,13258,15714,32316,5838,13258,7734,9930,6009,8634,8455,9193,15119,5864,6076,7070,8186,7772
,,19.5,9867,23646,10599,11173,34246,13413,15927,32756,5913,13413,7824,10074,6079,8735,8554,9300,15339,5940,6155,7161,8282,7872
,,20,9867,23985,10745,11327,34693,13567,16139,33195,5913,13567,7915,10219,6149,8836,8652,9346,15559,5940,6155,7161,8378,7872
,,20.5,9867,24325,10891,11480,35141,13573,16352,33635,5913,13573,8005,10364,6219,8936,8751,9346,15779,5940,6155,7161,8473,7872
,Rates per kg (Multiply by Total Shipment Weight),,,,,,,,,,,,,,,,,,,,,,,
,Weight (kg),21-44,310,1328,791,809,1346,709,824,1328,247,743,394,552,347,352,317,419,835,231,266,273,314,268
,,45-70,277,1288,766,782,1318,666,741,1263,206,709,377,523,333,341,300,391,817,198,224,259,309,255
,,71-99,274,1280,743,761,1298,661,709,1249,192,673,375,491,320,330,289,391,780,194,202,248,304,250
,,100-299,249,1238,690,711,1247,629,682,1211,167,636,297,460,240,229,229,323,769,182,174,222,240,230
,,300-499,216,1156,655,674,1210,611,643,1192,130,606,291,429,221,183,183,316,763,180,146,188,214,199
,,500-999,210,1151,628,648,1180,611,643,1182,122,590,279,399,205,172,172,304,740,169,144,185,205,181
,,1000+,207,1123,618,641,1170,603,602,1170,120,582,275,370,192,159,163,301,740,167,140,182,192,176
,,,,,,,,,,,,,,,,,,,,,,,,
,,,,,,,,,,,,,,,,,,,,,,,,
Footnotes,,,,,,,,,,,,,,,,,,,,,,,,
"1. All rates are exclusive of all applicable tax. For special fee and fuel surcharges, please refer to the Surcharge and Other Information page for details.",,,,,,,,,,,,,,,,,,,,,,,,
"2. Air cargo space must be reserved in advance with our Customer Service team for the following shipments: IP/IE multiple-piece shipments with an actual weight of more than 300kg, or IPF/IEF shipments (regardless of weight).",,,,,,,,,,,,,,,,,,,,,,,,
,,,,,,,,,,,,,,,,,,,,,,,,
Remarks,,,,,,,,,,,,,,,,,,,,,,,,
- These are special rates and available only to qualified customers in Japan. See the Miscellaneous Information section for details.,,,,,,,,,,,,,,,,,,,,,,,,
- The above rates are not discounted further. A fuel surcharge and other special fees will apply.,,,,,,,,,,,,,,,,,,,,,,,,
- A 68kg minimum rate charge per package shall apply to IPF/IEF shipments of less than 68kg. Please contact our Customer Service team for details.,,,,,,,,,,,,,,,,,,,,,,,,
"- The above rates do not apply to FedEx 10kg or 25kg Box. For applicable rates, please refer to FedEx Box Rates.",,,,,,,,,,,,,,,,,,,,,,,,
- Money Back Guarantee does not apply to the shipments under this ratesheet.,,,,,,,,,,,,,,,,,,,,,,,,
,,,,,,,,,,,,,,,,,,,,,,,,
,Please refer to Zone Index Special Pricing Program for detailed zone classification,,,,,,,,,,,,,,,,,,,,,,,
,FedEx Confidential Information,,,,,,,,,,,,,,,,,,,,,,,
,IPF Export,,,,,,,,,,,,,,,,,,,,,,,
,Japan,,,,,,,,,,,,,,,,,,,,,,,
,,,,,,,,,,,,,,,,,,,,,,,,
,Japan Sample Export Rates,,,,,,,,,,,,,,,,,,,,,,,
,For International Priority Freight (DTD) Shipments,,,,,,,,,,,,,,,,,,,,,,,"Effective September 11, 2023 to December 24, 2023"
,Rates exclude special fees and fuel surcharge(Per GRI23 list rate).,,,,,,,,,,,,,,,,,,,,,,,
,Rates in JYE,,A,D,E,F,G,H,I,J,K,M,N,O,Q,R,S,T,U,V,W,X,Y,Z
,"International Priority Freight (IPF) Weight
(kg)",68-99,274,1280,780,801,1363,661,886,1249,192,708,375,518,320,330,289,391,861,194,202,248,304,250
,,100-299,249,1238,726,747,1310,629,882,1211,167,669,297,485,240,229,229,323,848,182,174,222,240,230
,,300-499,216,1156,689,709,1270,611,794,1192,130,637,291,451,221,183,183,316,838,180,146,188,214,199
,,500-999,210,1151,660,682,1238,611,756,1182,122,620,279,418,205,172,172,304,834,169,144,185,205,181
,,1000+,207,1123,648,673,1230,603,752,1170,120,611,275,389,192,159,163,301,834,167,140,182,192,176
,,,,,,,,,,,,,,,,,,,,,,,,
Footnotes,,,,,,,,,,,,,,,,,,,,,,,,
"1. All rates are exclusive of all applicable tax. For special fee and fuel surcharges, please refer to the Surcharge and Other Information page for details.",,,,,,,,,,,,,,,,,,,,,,,,
"2. Air cargo space must be reserved in advance with our Customer Service team for the following shipments: IP/IE multiple-piece shipments with an actual weight of more than 300kg, or IPF/IEF shipments (regardless of weight).",,,,,,,,,,,,,,,,,,,,,,,,
,,,,,,,,,,,,,,,,,,,,,,,,
Remarks,,,,,,,,,,,,,,,,,,,,,,,,
- These are special rates and available only to qualified customers in Japan. See the Miscellaneous Information section for details.,,,,,,,,,,,,,,,,,,,,,,,,
- The above rates are not discounted further. A fuel surcharge and other special fees will apply.,,,,,,,,,,,,,,,,,,,,,,,,
- A 68kg minimum rate charge per package shall apply to IPF/IEF shipments of less than 68kg. Please contact our Customer Service team for details.,,,,,,,,,,,,,,,,,,,,,,,,
"- The above rates do not apply to FedEx 10kg or 25kg Box. For applicable rates, please refer to FedEx Box Rates.",,,,,,,,,,,,,,,,,,,,,,,,
- Money Back Guarantee does not apply to the shipments under this ratesheet.,,,,,,,,,,,,,,,,,,,,,,,,
,,,,,,,,,,,,,,,,,,,,,,,,
,Please refer to Zone Index Special Pricing Program for detailed zone classification,,,,,,,,,,,,,,,,,,,,,,,
,FedEx Confidential Information,,,,,,,,,,,,,,,,,,,,,,,
,IE Export,,,,,,,,,,,,,,,,,,,,,,,
,Japan,,,,,,,,,,,,,,,,,,,,,,,
,,,,,,,,,,,,,,,,,,,,,,,,
,Japan Sample Export Rates,,,,,,,,,,,,,,,,,,,,,,,
,For International Economy Shipments,,,,,,,,,,,,,,,,,,,,,,,"Effective September 11, 2023 to December 24, 2023"
,Rates exclude special fees and fuel surcharge(Per GRI23 list rate).,,,,,,,,,,,,,,,,,,,,,,,
,Please refer to Zone Index Special Pricing Program for detailed zone classification,,,,,,,,,,,,,,,,,,,,,,,
,Rates in JYE,,A,D,E,F,G,H,I,J,K,M,N,O,Q,R,S,T,U,V,W,X,Y,Z
,FedEx Envelope,0.5 kg,No FedEx Envelope and FedEx Pak rates are available for International Economy (IE) Service. Please use International Priority (IP) Service if FedEx packaging is needed. Any IE shipment using FedEx Envelope & Pak packaging will be charged at IE rates based on the weight per shipment.,,,,,,,,,,,,,,,,,,,,,
,FedEx Pak,0.5 kg,,,,,,,,,,,,,,,,,,,,,,
,,1,,,,,,,,,,,,,,,,,,,,,,
,,1.5,,,,,,,,,,,,,,,,,,,,,,
,,2,,,,,,,,,,,,,,,,,,,,,,
,,2.5,,,,,,,,,,,,,,,,,,,,,,
,International Economy (IE),0.5 kg,1656,4598,2732,2623,3046,3124,2769,2426,1391,2770,2073,1638,1474,1585,1806,2316,2650,1255,1408,1411,1580,1593
,,1,2219,5102,2733,2636,3540,3124,3339,2679,1471,2774,2074,1744,1626,1688,1904,2318,2846,1448,1549,1764,1581,1855
,,1.5,2501,6021,3136,3022,4404,3728,4146,3318,1658,3310,2333,2059,1829,1899,2141,2685,3359,1632,1745,1988,1778,2090
,,2,2782,6941,3538,3409,5268,4332,4954,3957,1845,3846,2592,2373,2032,2110,2379,3052,3872,1816,1941,2212,1976,2325
,,2.5,3064,7860,3940,3795,6132,4936,5761,4596,2031,4382,2851,2687,2235,2320,2616,3419,4385,2000,2138,2436,2173,2561
,,3,3379,7960,3942,3795,6734,5368,5766,4756,2032,5368,2852,2758,2235,2320,2616,3722,4384,2003,2146,2441,2173,2563
,,3.5,3632,8791,4535,4373,7527,5964,6479,5351,2185,5964,3160,3045,2476,2571,2898,4083,4842,2154,2307,2624,2408,2755
,,4,3885,9622,5127,4951,8321,6559,7193,5946,2337,6559,3468,3333,2717,2821,3180,4444,5300,2304,2467,2807,2643,2948
,,4.5,4139,10453,5720,5529,9114,7155,7906,6541,2489,7155,3776,3621,2959,3072,3463,4804,5757,2454,2628,2990,2878,3140
,,5,4392,11284,6312,6108,9907,7751,8619,7136,2642,7751,4084,3909,3200,3322,3745,5165,6215,2604,2789,3173,3112,3332
,,5.5,5464,12007,6316,6154,11892,8008,8620,7746,2648,8008,4425,4512,3325,3325,4210,5918,6748,2607,2818,3177,3116,3339
,,6,5651,12542,6474,6304,12135,8276,8809,7909,2739,8276,4533,4713,3406,3406,4313,6056,7048,2696,2914,3285,3192,3453
,,6.5,5838,13077,6631,6454,12379,8544,8997,8072,2830,8544,4641,4914,3487,3487,4415,6194,7348,2786,3011,3394,3268,3568
,,7,6025,13612,6789,6604,12623,8812,9185,8235,2920,8812,4749,5115,3568,3568,4518,6333,7649,2875,3108,3503,3344,3682
,,7.5,6213,14146,6946,6754,12866,9080,9374,8398,3011,9080,4857,5316,3650,3650,4621,6471,7949,2964,3204,3612,3420,3796
,,8,6400,14681,7104,6903,13110,9348,9562,8561,3102,9348,4965,5517,3731,3731,4724,6609,8250,3054,3301,3721,3496,3911
,,8.5,6587,15216,7261,7053,13353,9616,9750,8724,3193,9616,5073,5718,3812,3812,4827,6747,8550,3143,3397,3829,3572,4025
,,9,6774,15750,7419,7203,13597,9883,9939,8886,3283,9883,5181,5919,3893,3893,4929,6885,8851,3232,3494,3938,3648,4140
,,9.5,6961,16285,7576,7353,13840,10151,10127,9049,3374,10151,5290,6120,3974,3974,5032,7024,9151,3322,3590,4047,3724,4254
,,10,7148,16820,7734,7503,14084,10419,10316,9212,3465,10419,5398,6321,4055,4055,5135,7162,9452,3411,3687,4156,3800,4368
,,10.5,7162,17057,7808,8237,25510,10421,11861,24349,4289,10421,6079,7326,4721,6786,6646,7235,11151,4314,4468,5197,6433,5717
,,11,7251,17257,7893,8328,25763,10493,11986,24605,4342,10493,6134,7412,4764,6847,6706,7289,11281,4368,4524,5262,6490,5788
,,11.5,7340,17456,7978,8419,26015,10565,12111,24861,4395,10565,6188,7498,4806,6908,6765,7342,11412,4422,4580,5327,6548,5859
,,12,7429,17656,8063,8510,26267,10637,12236,25117,4449,10637,6243,7584,4848,6968,6825,7396,11542,4476,4635,5391,6606,5931
,,12.5,7518,17856,8149,8602,26519,10709,12361,25373,4502,10709,6297,7669,4891,7029,6884,7449,11673,4529,4691,5456,6663,6002
,,13,7608,18056,8234,8693,26771,10781,12486,25629,4556,10781,6352,7755,4933,7090,6944,7503,11804,4583,4747,5521,6721,6073
,,13.5,7697,18255,8319,8784,27023,10853,12611,25885,4609,10853,6406,7841,4975,7151,7004,7556,11934,4637,4802,5586,6779,6144
,,14,7786,18455,8404,8875,27275,10925,12736,26141,4663,10925,6461,7927,5018,7212,7063,7610,12065,4691,4858,5650,6836,6216
,,14.5,7875,18655,8489,8966,27527,10997,12861,26397,4716,10997,6515,8013,5060,7273,7123,7664,12195,4744,4914,5715,6894,6287
,,15,7965,18855,8574,9058,27779,11069,12987,26653,4770,11069,6570,8098,5102,7334,7182,7717,12326,4798,4969,5780,6952,6358
,,15.5,8054,19055,8659,9149,28032,11141,13112,26909,4823,11141,6625,8184,5145,7394,7242,7771,12457,4852,5025,5845,7009,6429
,,16,8143,19254,8745,9240,28284,11213,13237,27165,4876,11213,6679,8270,5187,7455,7302,7824,12587,4906,5081,5909,7067,6501
,,16.5,8232,19454,8830,9331,28536,11285,13362,27421,4930,11285,6734,8356,5230,7516,7361,7878,12718,4959,5136,5974,7125,6572
,,17,8322,19654,8915,9422,28788,11357,13487,27677,4983,11357,6788,8442,5272,7577,7421,7932,12848,5013,5192,6039,7183,6643
,,17.5,8411,19854,9000,9514,29040,11429,13612,27933,5037,11429,6843,8527,5314,7638,7480,7985,12979,5067,5248,6104,7240,6714
,,18,8500,20053,9085,9605,29292,11501,13737,28190,5090,11501,6897,8613,5357,7699,7540,8039,13110,5121,5304,6168,7298,6786
,,18.5,8589,20253,9170,9696,29544,11573,13862,28446,5144,11573,6952,8699,5399,7760,7600,8092,13240,5174,5359,6233,7356,6857
,,19,8679,20453,9255,9787,29796,11645,13987,28702,5197,11645,7006,8785,5441,7820,7659,8146,13371,5228,5415,6298,7413,6928
,,19.5,8768,20653,9341,9878,30049,11717,14113,28958,5250,11717,7061,8871,5484,7881,7719,8200,13501,5282,5471,6363,7471,6999
,,20,8857,20852,9426,9970,30301,11789,14238,29214,5304,11789,7115,8957,5526,7942,7778,8253,13632,5336,5526,6427,7529,7071
,,20.5,8946,21052,9511,10061,30553,11861,14363,29470,5357,11861,7170,9042,5568,8003,7838,8307,13763,5389,5582,6492,7586,7142
,Rates per kg (Multiply by Total Shipment Weight),,,,,,,,,,,,,,,,,,,,,,,
,Weight (kg),21-44,246,1148,608,623,1035,631,717,979,195,547,313,407,275,279,251,332,377,183,211,216,249,213
,,45-70,220,1124,589,601,1014,581,685,931,163,523,299,386,264,271,238,310,330,157,178,206,245,202
,,71-99,217,1116,571,585,999,577,653,921,152,496,298,362,254,261,229,310,307,154,160,196,241,199
,,100-299,198,1074,531,546,959,558,629,893,132,468,235,339,191,181,181,256,282,144,138,176,191,182
,,300-499,171,1005,504,519,930,537,559,879,103,447,231,317,174,145,145,251,259,142,115,149,170,158
,,500-999,166,1004,483,499,908,531,559,871,96,435,221,294,162,136,136,241,235,134,114,146,162,143
,,1000+,164,980,475,493,900,531,556,863,95,428,218,273,152,126,129,239,235,133,111,144,152,139
,,,,,,,,,,,,,,,,,,,,,,,,
,,,,,,,,,,,,,,,,,,,,,,,,
Footnotes,,,,,,,,,,,,,,,,,,,,,,,,
"1. All rates are exclusive of all applicable tax. For special fee and fuel surcharges, please refer to the Surcharge and Other Information page for details.",,,,,,,,,,,,,,,,,,,,,,,,
"2. Air cargo space must be reserved in advance with our Customer Service team for the following shipments: IP/IE multiple-piece shipments with an actual weight of more than 300kg, or IPF/IEF shipments (regardless of weight).",,,,,,,,,,,,,,,,,,,,,,,,
,,,,,,,,,,,,,,,,,,,,,,,,
Remarks,,,,,,,,,,,,,,,,,,,,,,,,
- These are special rates and available only to qualified customers in Japan. See the Miscellaneous Information section for details.,,,,,,,,,,,,,,,,,,,,,,,,
- The above rates are not discounted further. A fuel surcharge and other special fees will apply.,,,,,,,,,,,,,,,,,,,,,,,,
- A 68kg minimum rate charge per package shall apply to IPF/IEF shipments of less than 68kg. Please contact our Customer Service team for details.,,,,,,,,,,,,,,,,,,,,,,,,
"- The above rates do not apply to FedEx 10kg or 25kg Box. For applicable rates, please refer to FedEx Box Rates.",,,,,,,,,,,,,,,,,,,,,,,,
- Money Back Guarantee does not apply to the shipments under this ratesheet.,,,,,,,,,,,,,,,,,,,,,,,,
,,,,,,,,,,,,,,,,,,,,,,,,
,Please refer to Zone Index Special Pricing Program for detailed zone classification,,,,,,,,,,,,,,,,,,,,,,,
,FedEx Confidential Information,,,,,,,,,,,,,,,,,,,,,,,
,IEF Export,,,,,,,,,,,,,,,,,,,,,,,
,Japan,,,,,,,,,,,,,,,,,,,,,,,
,,,,,,,,,,,,,,,,,,,,,,,,
,Japan Sample Export Rates,,,,,,,,,,,,,,,,,,,,,,,
,For International Economy Freight (DTD) Shipments,,,,,,,,,,,,,,,,,,,,,,,"Effective September 11, 2023 to December 24, 2023"
,Rates exclude special fees and fuel surcharge(Per GRI23 list rate).,,,,,,,,,,,,,,,,,,,,,,,
,Rates in JYE,,A,D,E,F,G,H,I,J,K,M,N,O,Q,R,S,T,U,V,W,X,Y,Z
,"International Economy Freight (IEF)
Weight (kg)",68-99,217,1116,600,615,1049,577,768,921,152,522,298,381,254,261,229,310,307,154,160,196,241,199
,,100-299,198,1074,559,574,1008,558,768,893,132,493,235,357,191,181,181,256,282,144,138,176,191,182
,,300-499,171,1005,530,545,978,537,724,879,103,470,231,333,174,145,145,251,259,142,115,149,170,158
,,500-999,166,1004,508,524,953,531,691,871,96,457,221,308,162,136,136,241,235,134,114,146,162,143
,,1000+,164,980,499,518,946,531,687,863,95,451,218,286,152,126,129,239,235,133,111,144,152,139
,,,,,,,,,,,,,,,,,,,,,,,,
Footnotes,,,,,,,,,,,,,,,,,,,,,,,,
"1. All rates are exclusive of all applicable tax. For special fee and fuel surcharges, please refer to the Surcharge and Other Information page for details.",,,,,,,,,,,,,,,,,,,,,,,,
"2. Air cargo space must be reserved in advance with our Customer Service team for the following shipments: IP/IE multiple-piece shipments with an actual weight of more than 300kg, or IPF/IEF shipments (regardless of weight).",,,,,,,,,,,,,,,,,,,,,,,,
,,,,,,,,,,,,,,,,,,,,,,,,
Remarks,,,,,,,,,,,,,,,,,,,,,,,,
- These are special rates and available only to qualified customers in Japan. See the Miscellaneous Information section for details.,,,,,,,,,,,,,,,,,,,,,,,,
- The above rates are not discounted further. A fuel surcharge and other special fees will apply.,,,,,,,,,,,,,,,,,,,,,,,,
- A 68kg minimum rate charge per package shall apply to IPF/IEF shipments of less than 68kg. Please contact our Customer Service team for details.,,,,,,,,,,,,,,,,,,,,,,,,
"- The above rates do not apply to FedEx 10kg or 25kg Box. For applicable rates, please refer to FedEx Box Rates.",,,,,,,,,,,,,,,,,,,,,,,,
- Money Back Guarantee does not apply to the shipments under this ratesheet.,,,,,,,,,,,,,,,,,,,,,,,,
,,,,,,,,,,,,,,,,,,,,,,,,
,Please refer to Zone Index Special Pricing Program for detailed zone classification,,,,,,,,,,,,,,,,,,,,,,,
,FedEx Confidential Information,,,,,,,,,,,,,,,,,,,,,,,